<svg xmlns="http://www.w3.org/2000/svg" width="35" height="28" viewBox="0 0 35 28">
  <path fill="#777777" fill-rule="evenodd" d="M34.0653641,15.0022992 C34.0653641,15.0436853 34.0653641,15.0850714 34.0607657,15.1218591 C34.0423718,15.3517819 33.9775336,15.5725078 33.8722289,15.765643 C33.8676305,15.7794383 33.8584336,15.7932337 33.8441784,15.8070291 C33.7614062,15.9265889 33.6464447,16.0599442 33.4900972,16.230087 L33.4763019,16.2438824 C33.3112173,16.4186237 33.09463,16.6347512 32.8187226,16.9106586 L28.6479228,21.0809985 C28.3352277,21.398292 27.9213667,21.5546395 27.5079655,21.5546395 C27.098243,21.5546395 26.6848418,21.398292 26.3716869,21.0809985 C25.7421582,20.4560683 25.7421582,19.435211 26.3716869,18.809821 C26.3716869,18.809821 27.4297917,17.7471178 28.569749,16.6117589 L14.0022994,16.6117589 C13.1147973,16.6117589 12.3928397,15.8898013 12.3928397,15.0022992 C12.3928397,14.1101987 13.1147973,13.3928395 14.0022994,13.3928395 L28.5702089,13.3928395 L26.3721468,11.1947775 C25.7426181,10.564789 25.7426181,9.54853014 26.3721468,8.91854163 C27.0021353,8.28855313 28.0183941,8.28855313 28.6483826,8.91854163 L33.5917231,13.8618821 C33.8952212,14.1653802 34.0653641,14.5746428 34.0653641,15.0022992 Z M23.4613239,23.164559 C24.0540649,23.8267367 23.994285,24.8429956 23.3325672,25.4361964 C20.7666286,27.7354245 17.4511416,29 14.0022994,29 C6.28149128,29 0,22.7185088 0,15.0022992 C0,7.28149121 6.28149128,1 14.0022994,1 C17.4511416,1 20.7666286,2.26457546 23.3325672,4.56380358 C23.994285,5.15700443 24.0540649,6.17326326 23.4613239,6.83544096 C22.8681231,7.49761866 21.8518642,7.55739859 21.1896865,6.96419773 C19.2123503,5.19379208 16.6602071,4.21891936 14.0022994,4.21891936 C8.0564954,4.21891936 3.2189194,9.05649532 3.2189194,15.0022992 C3.2189194,20.9481031 8.0564954,25.7810806 14.0022994,25.7810806 C16.6602071,25.7810806 19.2123503,24.8062079 21.1896865,23.0404007 C21.8518642,22.4471999 22.8681231,22.5023813 23.4613239,23.164559 Z" transform="translate(0 -1)"/>
</svg>
