<svg xmlns="http://www.w3.org/2000/svg" width="18" height="22" viewBox="0 0 18 22">
  <g fill="#29B834" fill-rule="evenodd">
    <rect width="18" height="18.135" rx="3"/>
    <rect width="5.311" height="5.351" x="6.412" y="15.379" transform="rotate(135 9.067 18.054)"/>
  </g>
</svg>
